Project 1: Exploratory Data Analysis
…
joined6 %>% group_by(Genre) %>% summarize_if(is.numeric, c(Mean = mean, 
    Sd = sd, Min = min, Max = max, Var = var), na.rm = T) %>% 
    pivot_longer(contains("_")) %>% separate(name, into = c("Variable", 
    "Statistic")) %>% pivot_wider(names_from = "Statistic", values_from = "value")  #Creating summary summary statistics, grouping by genre

## # A tibble: 96 x 7
##    Genre          Variable                    Mean      Sd   Min    Max      Var
##    <chr>          <chr>                      <dbl>   <dbl> <dbl>  <dbl>    <dbl>
##  1 Action/Advent… DailyAverageDryBulbTemp… 86       7.67    63    95    58.8    
##  2 Action/Advent… DailyAverageStationPres… 29.4     0.0885  29.2  29.6   0.00784
##  3 Action/Advent… DailyCoolingDegreeDays   21.1     7.40     0    30    54.8    
##  4 Action/Advent… DailyHeatingDegreeDays    0.0889  0.417    0     2     0.174  
##  5 Action/Advent… DailyMaximumDryBulbTemp… 97.2     9.80    67   110    96.1    
##  6 Action/Advent… DailyMinimumDryBulbTemp… 74.5     6.00    59    81    36.0    
##  7 Action/Advent… DailyPrecipitation        0.0148  0.0574   0     0.27  0.00329
##  8 Action/Advent… mmDailyPrecip             0.375   1.46     0     6.86  2.12   
##  9 Biography      DailyAverageDryBulbTemp… 91      NA       91    91    NA      
## 10 Biography      DailyAverageStationPres… 29.3    NA       29.3  29.3  NA      
## # … with 86 more rows
…
joined6 %>% filter(Genre == "Horror") %>% select(Title)  #Listing the horror shows/movies

## # A tibble: 34 x 1
##    Title                      
##    <chr>                      
##  1 Cam                        
##  2 As Above, So Below         
##  3 Scream 3                   
##  4 The Conjuring              
##  5 The Crow                   
##  6 The Texas Chainsaw Massacre
##  7 The Evil Dead              
##  8 Candyman                   
##  9 The Amityville Horror      
## 10 Rosemary's Baby            
## # … with 24 more rows
…
NumberMovie <- function(x) sum(is.na(x))  #Creating a function to count the number of NAs 
joined6 %>% select(Episode) %>% summarize_all(NumberMovie)  #Counting the number of NAs in the Episode column/counting number of movies seen

## # A tibble: 1 x 1
##   Episode
##     <int>
## 1     131

joined6 %>% group_by(Date) %>% summarize(NumberDays = n()) %>% 
    arrange(desc(NumberDays))  #Listing the number of shows/movies I watched on each day

## # A tibble: 139 x 2
##    Date       NumberDays
##    <date>          <int>
##  1 2020-07-29         16
##  2 2020-04-12         15
##  3 2020-04-29         15
##  4 2020-07-15         11
##  5 2019-07-30          9
##  6 2019-08-15          9
##  7 2019-08-18          9
##  8 2020-04-14          9
##  9 2020-07-06          9
## 10 2020-07-16          9
## # … with 129 more rows
…
joined6 %>% group_by(Genre, Title) %>% summarize(NumberGenre = n()) %>% 
    arrange(desc(NumberGenre))  #Listing what show/movie I had seen the most

## # A tibble: 181 x 3
## # Groups:   Genre [12]
##    Genre       Title                             NumberGenre
##    <chr>       <chr>                                   <int>
##  1 Comedy      Parks and Recreation:                      43
##  2 Competition The Great British Baking Show:             41
##  3 Reality     Storage Wars: Northern Treasures:          36
##  4 Reality     Yummy Mummies:                             20
##  5 Drama       Dead to Me:                                14
##  6 Crime       In the Dark:                               13
##  7 Comedy      Derry Girls:                               12
##  8 Comedy      Grace and Frankie:                         12
##  9 Comedy      GLOW:                                      10
## 10 Competition Sugar Rush:                                10
## # … with 171 more rows
…
Visualizations

To show the correlation between all of my numeric variables, I created a correlation heatmap. As shown, the variables with the highest correlation are DailyAverageDryBulbTemperature with DailyCooolingDegreeDays (0.98). This makes sense, since cooling degree days are calculated based on the number of degrees above or below 65 degrees.

cormat <- joined6 %>% select_if(is.numeric) %>% cor(use = "pair")  #Creating a correlation matrix
tidycor <- cormat %>% as.data.frame %>% rownames_to_column("var1") %>% 
    pivot_longer(-1, names_to = "var2", values_to = "correlation")  #Tidying correlation matrix

tidycor %>% arrange(desc(correlation))  #Correlation Data

## # A tibble: 64 x 3
##    var1                           var2                           correlation
##    <chr>                          <chr>                                <dbl>
##  1 DailyAverageDryBulbTemperature DailyAverageDryBulbTemperature           1
##  2 DailyAverageStationPressure    DailyAverageStationPressure              1
##  3 DailyCoolingDegreeDays         DailyCoolingDegreeDays                   1
##  4 DailyHeatingDegreeDays         DailyHeatingDegreeDays                   1
##  5 DailyMaximumDryBulbTemperature DailyMaximumDryBulbTemperature           1
##  6 DailyMinimumDryBulbTemperature DailyMinimumDryBulbTemperature           1
##  7 DailyPrecipitation             DailyPrecipitation                       1
##  8 DailyPrecipitation             mmDailyPrecip                            1
##  9 mmDailyPrecip                  DailyPrecipitation                       1
## 10 mmDailyPrecip                  mmDailyPrecip                            1
## # … with 54 more rows
…
